{
    "name": "Bless",
    "alias": "bless",
    "description": "",
    "version": "v0.1",
    "keywords": [],
    "active": 1,
    "order": 1,
    "providers": [
        "Modules\\Bless\\Providers\\BlessServiceProvider",
        "Modules\\Bless\\Providers\\RouteServiceProvider"
    ],
    "aliases":{},
    "files": [
        
    ]
}
